1495;VILLERS-LA-VILLE;Waals-Brabant;VILLERS-LA-VILLE;Brabant Wallon
1500;HALLE;Vlaams-Brabant;HALLE;Brabant Flamand
1501;Buizingen;Vlaams-Brabant;Buizingen;Brabant Flamand
1502;Lembeek;Vlaams-Brabant;Lembeek;Brabant Flamand
1540;Herfelingen;Vlaams-Brabant;Herfelingen;Brabant Flamand
1540;HERNE;Vlaams-Brabant;HERNE;Brabant Flamand
1541;Sint-Pieters-Kapelle;Vlaams-Brabant;Sint-Pieters-Kapelle;Brabant Flamand
1547;BEVER;Vlaams-Brabant;BIÉVÈNE;Brabant Flamand
1560;HOEILAART;Vlaams-Brabant;HOEILAART;Brabant Flamand
1570;GALMAARDEN;Vlaams-Brabant;GALMAARDEN;Brabant Flamand
1570;Tollembeek;Vlaams-Brabant;Tollembeek;Brabant Flamand
1570;Vollezele;Vlaams-Brabant;Vollezele;Brabant Flamand
1600;Oudenaken;Vlaams-Brabant;Oudenaken;Brabant Flamand
1600;Sint-Laureins-Berchem;Vlaams-Brabant;Sint-Laureins-Berchem;Brabant Flamand
1600;SINT-PIETERS-LEEUW;Vlaams-Brabant;SINT-PIETERS-LEEUW;Brabant Flamand
